TMDB Box Office Prediction
…
Keep the production company with the highest score for every movie of this dataset.

Show a bar chart of the average revenue in function of the production company.

## Steps 1 and 2: Append the data extracted in a data frame.
train.production.companies <- AppendExtractedData(train, "production_companies")
test.production.companies <- AppendExtractedData(test, "production_companies")

## Steps 3 and 4: Grouping the data and getting the means and calculate the score for every production company and add it to the data frame.
train.production.companies <- GetScoreByProductionCompanyName(train, train.production.companies)
test.production.companies <- GetScoreByProductionCompanyName(test, test.production.companies)
print(train.production.companies, n = 25)

# A tibble: 3,695 x 5
   name                   mean_revenue mean_budget number_of_movies   score
   <chr>                         <dbl>       <dbl>            <int>   <dbl>
 1 Warner Bros.             120334674.   44788480.              202  3.02e6
 2 Universal Pictures       109670828.   35049378.              188  2.20e6
 3 Paramount Pictures       124783064.   36243808.              161  1.95e6
 4 Walt Disney Pictures     303777083.   88143548.               62  1.82e6
 5 Twentieth Century Fox   113961916.   37958986.              138  1.75e6
 6 Columbia Pictures        120284417.   48554176.               91  1.47e6
 7 New Line Cinema          145159176.   42460000                75  1.06e6
 8 Relativity Media         111337606.   50661389.               48  8.11e5
 9 Village Roadshow Pict   139645381.   66666667.               36  8.00e5
10 Metro-Goldwyn-Mayer (    68721456.   28383437.               84  7.95e5
11 Legendary Pictures       357564820.  125000000                19  7.92e5
12 Touchstone Pictures       76546547.   29944199.               63  6.29e5
13 Columbia Pictures Cor    75911345.   29977051.               61  6.10e5
14 Dune Entertainment       168699729.   57100000                30  5.71e5
15 Original Film            227934116.   79357143.               21  5.55e5
16 DreamWorks SKG           187110073.   60370370.               27  5.43e5
17 TriStar Pictures          78391982.   25328302.               53  4.47e5
18 Revolution Sun Studios   655469383.  162000000                 8  4.32e5
19 Jerry Bruckheimer Fil   561781952.  184285714.                7  4.30e5
20 Regency Enterprises      105011750.   40354839.               31  4.17e5
21 Amblin Entertainment     230780010.   51826087.               23  3.97e5
22 Pixar Animation Studi   532351328.  146500000                 8  3.91e5
23 WingNut Films            559200424   126000000                 9  3.78e5
24 Di Bonaventura Pictur   425142483.  125555556.                9  3.77e5
25 Bad Hat Harry Product   374057239.  175833333.                6  3.52e5
#  with 3,670 more rows
…
